{
  "page": 1,
  "total_results": 10000,
  "total_pages": 500,
  "results": [
    {
      "original_name": "Cobra Kai",
      "genre_ids": [
        18,
        10759
      ],
      "name": "Cobra Kai",
      "popularity": 2104.099,
      "origin_country": [
        "US"
      ],
      "vote_count": 989,
      "first_air_date": "2018-05-02",
      "backdrop_path": "/g63KmFgqkvXu6WKS23V56hqEidh.jpg",
      "original_language": "en",
      "id": 77169,
      "vote_average": 8,
      "overview": "This Karate Kid sequel series picks up 30 years after the events of the 1984 All Valley Karate Tournament and finds Johnny Lawrence on the hunt for redemption by reopening the infamous Cobra Kai karate dojo. This reignites his old rivalry with the successful Daniel LaRusso, who has been working to maintain the balance in his life without mentor Mr. Miyagi.",
      "poster_path": "/eTMMU2rKpZRbo9ERytyhwatwAjz.jpg"
    },
    {
      "original_name": "The Boys",
      "genre_ids": [
        10759,
        10765
      ],
      "name": "The Boys",
      "popularity": 887.948,
      "origin_country": [
        "US"
      ],
      "vote_count": 3213,
      "first_air_date": "2019-07-25",
      "backdrop_path": "/mGVrXeIjyecj6TKmwPVpHlscEmw.jpg",
      "original_language": "en",
      "id": 76479,
      "vote_average": 8.4,
      "overview": "A group of vigilantes known informally as “The Boys” set out to take down corrupt superheroes with no more than blue-collar grit and a willingness to fight dirty.",
      "poster_path": "/mY7SeH4HFFxW1hiI6cWuwCRKptN.jpg"
    },
    {
      "original_name": "Fear the Walking Dead",
      "genre_ids": [
        18,
        10759
      ],
      "name": "Fear the Walking Dead",
      "popularity": 713.993,
      "origin_country": [
        "US"
      ],
      "vote_count": 2337,
      "first_air_date": "2015-08-23",
      "backdrop_path": "/58PON1OrnBiX6CqEHgeWKVwrCn6.jpg",
      "original_language": "en",
      "id": 62286,
      "vote_average": 7.3,
      "overview": "What did the world look like as it was transforming into the horrifying apocalypse depicted in \"The Walking Dead\"? This spin-off set in Los Angeles, following new characters as they face the beginning of the end of the world, will answer that question.",
      "poster_path": "/wGFUewXPeMErCe2xnCmmLEiHOGh.jpg"
    },
    {
      "original_name": "Lucifer",
      "genre_ids": [
        80,
        10765
      ],
      "name": "Lucifer",
      "popularity": 696.088,
      "origin_country": [
        "US"
      ],
      "vote_count": 5944,
      "first_air_date": "2016-01-25",
      "backdrop_path": "/ta5oblpMlEcIPIS2YGcq9XEkWK2.jpg",
      "original_language": "en",
      "id": 63174,
      "vote_average": 8.5,
      "overview": "Bored and unhappy as the Lord of Hell, Lucifer Morningstar abandoned his throne and retired to Los Angeles, where he has teamed up with LAPD detective Chloe Decker to take down criminals. But the longer he's away from the underworld, the greater the threat that the worst of humanity could escape.",
      "poster_path": "/4EYPN5mVIhKLfxGruy7Dy41dTVn.jpg"
    },
    {
      "original_name": "The Walking Dead: World Beyond",
      "genre_ids": [
        18,
        9648,
        10765
      ],
      "name": "The Walking Dead: World Beyond",
      "popularity": 574.705,
      "origin_country": [
        "US"
      ],
      "vote_count": 268,
      "first_air_date": "2020-10-04",
      "backdrop_path": "/pLVrN9B750ehwTFdQ6n3HRUERLd.jpg",
      "original_language": "en",
      "id": 94305,
      "vote_average": 7.8,
      "overview": "A heroic group of teens sheltered from the dangers of the post-apocalyptic world leave the safety of the only home they have ever known and embark on a cross-country journey to find the one man who can possibly save the world.",
      "poster_path": "/z31GxpVgDsFAF4paZR8PRsiP16D.jpg"
    },
    {
      "original_name": "The 100",
      "genre_ids": [
        18,
        10759,
        10765
      ],
      "name": "The 100",
      "popularity": 382.316,
      "origin_country": [
        "US"
      ],
      "vote_count": 4693,
      "first_air_date": "2014-03-19",
      "backdrop_path": "/hTExot1sfn7dHZjGrk0Aiwpntxt.jpg",
      "original_language": "en",
      "id": 48866,
      "vote_average": 7.7,
      "overview": "100 years in the future, when the Earth has been abandoned due to radioactivity, the last surviving humans live on an ark orbiting the planet — but the ark won't last forever. So the repressive regime picks 100 expendable juvenile delinquents to send down to Earth to see if the planet is still habitable.",
      "poster_path": "/wcaDIAG1QdXQLRaj4vC1EFdBT2.jpg"
    },
    {
      "original_name": "Riverdale",
      "genre_ids": [
        18,
        9648
      ],
      "name": "Riverdale",
      "popularity": 368.645,
      "origin_country": [
        "US"
      ],
      "vote_count": 6008,
      "first_air_date": "2017-01-26",
      "backdrop_path": "/9hvhGtcsGhQY58pukw8w55UEUbL.jpg",
      "original_language": "en",
      "id": 69050,
      "vote_average": 8.6,
      "overview": "Set in the present, the series offers a bold, subversive take on Archie, Betty, Veronica and their friends, exploring the surreality of small-town life, the darkness and weirdness bubbling beneath Riverdale’s wholesome facade.",
      "poster_path": "/4X7o1ssOEvp4BFLim1AZmPNcYbU.jpg"
    },
    {
      "original_name": "Grey's Anatomy",
      "genre_ids": [
        18
      ],
      "name": "Grey's Anatomy",
      "popularity": 351.017,
      "origin_country": [
        "US"
      ],
      "vote_count": 3866,
      "first_air_date": "2005-03-27",
      "backdrop_path": "/edmk8xjGBsYVIf4QtLY9WMaMcXZ.jpg",
      "original_language": "en",
      "id": 1416,
      "vote_average": 8,
      "overview": "Follows the personal and professional lives of a group of doctors at Seattle’s Grey Sloan Memorial Hospital.",
      "poster_path": "/jnsvc7gCKocXnrTXF6p03cICTWb.jpg"
    },
    {
      "original_name": "The Simpsons",
      "id": 456,
      "name": "The Simpsons",
      "popularity": 330.956,
      "vote_count": 4991,
      "vote_average": 7.7,
      "first_air_date": "1989-12-16",
      "poster_path": "/qcr9bBY6MVeLzriKCmJOv1562uY.jpg",
      "genre_ids": [
        16,
        35,
        10751,
        18
      ],
      "original_language": "en",
      "backdrop_path": "/adZ9ldSlkGfLfsHNbh37ZThCcgU.jpg",
      "overview": "Set in Springfield, the average American town, the show focuses on the antics and everyday adventures of the Simpson family; Homer, Marge, Bart, Lisa and Maggie, as well as a virtual cast of thousands. Since the beginning, the series has been a pop culture icon, attracting hundreds of celebrities to guest star. The show has also made name for itself in its fearless satirical take on politics, media and American life in general.",
      "origin_country": [
        "US"
      ]
    },
    {
      "original_name": "The Vampire Diaries",
      "genre_ids": [
        18,
        14,
        27,
        10749
      ],
      "name": "The Vampire Diaries",
      "popularity": 328.65,
      "origin_country": [
        "US"
      ],
      "vote_count": 3859,
      "first_air_date": "2009-09-10",
      "backdrop_path": "/k7T9xRyzP41wBVNyNeLmh8Ch7gD.jpg",
      "original_language": "en",
      "id": 18165,
      "vote_average": 8.3,
      "overview": "The story of two vampire brothers obsessed with the same girl, who bears a striking resemblance to the beautiful but ruthless vampire they knew and loved in 1864.",
      "poster_path": "/b3vl6wV1W8PBezFfntKTrhrehCY.jpg"
    },
    {
      "original_name": "Supernatural",
      "genre_ids": [
        18,
        9648,
        10765
      ],
      "name": "Supernatural",
      "popularity": 324.803,
      "origin_country": [
        "US"
      ],
      "vote_count": 4039,
      "first_air_date": "2005-09-13",
      "backdrop_path": "/nVRyd8hlg0ZLxBn9RaI7mUMQLnz.jpg",
      "original_language": "en",
      "id": 1622,
      "vote_average": 8.1,
      "overview": "When they were boys, Sam and Dean Winchester lost their mother to a mysterious and demonic supernatural force. Subsequently, their father raised them to be soldiers. He taught them about the paranormal evil that lives in the dark corners and on the back roads of America ... and he taught them how to kill it. Now, the Winchester brothers crisscross the country in their '67 Chevy Impala, battling every kind of supernatural threat they encounter along the way. ",
      "poster_path": "/KoYWXbnYuS3b0GyQPkbuexlVK9.jpg"
    },
    {
      "original_name": "Game of Thrones",
      "genre_ids": [
        18,
        9648,
        10759,
        10765
      ],
      "name": "Game of Thrones",
      "popularity": 323.302,
      "origin_country": [
        "US"
      ],
      "vote_count": 11078,
      "first_air_date": "2011-04-17",
      "backdrop_path": "/suopoADq0k8YZr4dQXcU6pToj6s.jpg",
      "original_language": "en",
      "id": 1399,
      "vote_average": 8.3,
      "overview": "Seven noble families fight for control of the mythical land of Westeros. Friction between the houses leads to full-scale war. All while a very ancient evil awakens in the farthest north. Amidst the war, a neglected military order of misfits, the Night's Watch, is all that stands between the realms of men and icy horrors beyond.",
      "poster_path": "/u3bZgnGQ9T01sWNhyveQz0wH0Hl.jpg"
    },
    {
      "original_name": "The Walking Dead",
      "genre_ids": [
        18,
        10759,
        10765
      ],
      "name": "The Walking Dead",
      "popularity": 323.001,
      "origin_country": [
        "US"
      ],
      "vote_count": 8257,
      "first_air_date": "2010-10-31",
      "backdrop_path": "/wXXaPMgrv96NkH8KD1TMdS2d7iq.jpg",
      "original_language": "en",
      "id": 1402,
      "vote_average": 7.9,
      "overview": "Sheriff's deputy Rick Grimes awakens from a coma to find a post-apocalyptic world dominated by flesh-eating zombies. He sets out to find his family and encounters many other survivors along the way.",
      "poster_path": "/qgjP2OrrX9gc6M270xdPnEmE9tC.jpg"
    },
    {
      "original_name": "Subete a mi moto",
      "genre_ids": [
        18
      ],
      "name": "Subete a mi moto",
      "popularity": 321.735,
      "origin_country": [
        "PR"
      ],
      "vote_count": 197,
      "first_air_date": "2020-10-09",
      "backdrop_path": "/6tpAJC6jqzyqEjR2Pf0PkilY8Ur.jpg",
      "original_language": "es",
      "id": 111119,
      "vote_average": 7.3,
      "overview": "The Story behind the the iconic boy band Menudo according to the creator and manager of the band",
      "poster_path": "/9Fsee2p5qiac3GGmQjRUOK8oCp0.jpg"
    },
    {
      "original_name": "The Umbrella Academy",
      "genre_ids": [
        35,
        18,
        10759,
        10765
      ],
      "name": "The Umbrella Academy",
      "popularity": 304.612,
      "origin_country": [
        "US"
      ],
      "vote_count": 3104,
      "first_air_date": "2019-02-15",
      "backdrop_path": "/qJxzjUjCpTPvDHldNnlbRC4OqEh.jpg",
      "original_language": "en",
      "id": 75006,
      "vote_average": 8.7,
      "overview": "A dysfunctional family of superheroes comes together to solve the mystery of their father's death, the threat of the apocalypse and more.",
      "poster_path": "/scZlQQYnDVlnpxFTxaIv2g0BWnL.jpg"
    },
    {
      "original_name": "Law & Order: Special Victims Unit",
      "genre_ids": [
        80,
        18
      ],
      "name": "Law & Order: Special Victims Unit",
      "popularity": 301.893,
      "origin_country": [
        "US"
      ],
      "vote_count": 1782,
      "first_air_date": "1999-09-20",
      "backdrop_path": "/cD9PxbrdWYgL7MUpD9eOYuiSe2P.jpg",
      "original_language": "en",
      "id": 2734,
      "vote_average": 7.5,
      "overview": "In the criminal justice system, sexually-based offenses are considered especially heinous. In New York City, the dedicated detectives who investigate these vicious felonies are members of an elite squad known as the Special Victims Unit. These are their stories.",
      "poster_path": "/6t6r1VGQTTQecN4V0sZeqsmdU9g.jpg"
    },
    {
      "original_name": "The Flash",
      "genre_ids": [
        18,
        10765
      ],
      "name": "The Flash",
      "popularity": 286.823,
      "origin_country": [
        "US"
      ],
      "vote_count": 5944,
      "first_air_date": "2014-10-07",
      "backdrop_path": "/z59kJfcElR9eHO9rJbWp4qWMuee.jpg",
      "original_language": "en",
      "id": 60735,
      "vote_average": 7.5,
      "overview": "After a particle accelerator causes a freak storm, CSI Investigator Barry Allen is struck by lightning and falls into a coma. Months later he awakens with the power of super speed, granting him the ability to move through Central City like an unseen guardian angel. Though initially excited by his newfound powers, Barry is shocked to discover he is not the only \"meta-human\" who was created in the wake of the accelerator explosion -- and not everyone is using their new powers for good. Barry partners with S.T.A.R. Labs and dedicates his life to protect the innocent. For now, only a few close friends and associates know that Barry is literally the fastest man alive, but it won't be long before the world learns what Barry Allen has become...The Flash.",
      "poster_path": "/wHa6KOJAoNTFLFtp7wguUJKSnju.jpg"
    },
    {
      "original_name": "I Am...",
      "genre_ids": [
        18
      ],
      "name": "I Am...",
      "popularity": 269.387,
      "origin_country": [],
      "vote_count": 2,
      "first_air_date": "2019-07-23",
      "backdrop_path": null,
      "original_language": "en",
      "id": 91605,
      "vote_average": 4,
      "overview": "Each hour-long film follows a different women as they experience “moments that are emotionally raw, thought-provoking and utterly personal”.",
      "poster_path": "/oogunE22HDTcTxFakKQbwqfw1qo.jpg"
    },
    {
      "original_name": "Bones",
      "genre_ids": [
        80,
        18
      ],
      "name": "Bones",
      "popularity": 268.084,
      "origin_country": [
        "US"
      ],
      "vote_count": 1430,
      "first_air_date": "2005-09-13",
      "backdrop_path": "/e9n87p3Ax67spq3eUgLB6rjIEow.jpg",
      "original_language": "en",
      "id": 1911,
      "vote_average": 8.1,
      "overview": "Dr. Temperance Brennan and her colleagues at the Jeffersonian's Medico-Legal Lab assist Special Agent Seeley Booth with murder investigations when the remains are so badly decomposed, burned or destroyed that the standard identification methods are useless.",
      "poster_path": "/1bwF1daWnsEYYjbHXiEMdS587fR.jpg"
    },
    {
      "original_name": "The Good Doctor",
      "genre_ids": [
        18
      ],
      "name": "The Good Doctor",
      "popularity": 267.525,
      "origin_country": [
        "US"
      ],
      "vote_count": 5223,
      "first_air_date": "2017-09-25",
      "backdrop_path": "/iDbIEpCM9nhoayUDTwqFL1iVwzb.jpg",
      "original_language": "en",
      "id": 71712,
      "vote_average": 8.6,
      "overview": "A young surgeon with Savant syndrome is recruited into the surgical unit of a prestigious hospital. The question will arise: can a person who doesn't have the ability to relate to people actually save their lives?",
      "poster_path": "/53P8oHo9cfOsgb1cLxBi4pFY0ja.jpg"
    }
  ]
}